<?xml version="1.0" encoding="UTF-8" standalone="no"?>
<!-- Created with Inkscape (http://www.inkscape.org/) -->

<svg
   xmlns:dc="http://purl.org/dc/elements/1.1/"
   xmlns:cc="http://creativecommons.org/ns#"
   xmlns:rdf="http://www.w3.org/1999/02/22-rdf-syntax-ns#"
   xmlns:svg="http://www.w3.org/2000/svg"
   xmlns="http://www.w3.org/2000/svg"
   xmlns:xlink="http://www.w3.org/1999/xlink"
   xmlns:sodipodi="http://sodipodi.sourceforge.net/DTD/sodipodi-0.dtd"
   xmlns:inkscape="http://www.inkscape.org/namespaces/inkscape"
   width="25"
   height="322"
   viewBox="0 0 6.6145832 85.195837"
   version="1.1"
   id="svg8"
   inkscape:version="0.92.4 (5da689c313, 2019-01-14)"
   sodipodi:docname="battery.svg"
   inkscape:export-filename="/home/tcrass/devlp/rockbox/themes/e200/cyan/battery.png"
   inkscape:export-xdpi="96"
   inkscape:export-ydpi="96">
  <defs
     id="defs2">
    <inkscape:tag
       id="Set 1"
       inkscape:expanded="true" />
    <inkscape:path-effect
       effect="skeletal"
       id="path-effect4492"
       is_visible="true"
       pattern="M 0,5 C 0,2.24 2.24,0 5,0 7.76,0 10,2.24 10,5 10,7.76 7.76,10 5,10 2.24,10 0,7.76 0,5 Z"
       copytype="single_stretched"
       prop_scale="0.26458332"
       scale_y_rel="false"
       spacing="0"
       normal_offset="0"
       tang_offset="0"
       prop_units="false"
       vertical_pattern="false"
       fuse_tolerance="0" />
    <linearGradient
       id="linearGradient3772-1">
      <stop
         style="stop-color:#ffffff;stop-opacity:1"
         offset="0"
         id="stop3774-0" />
      <stop
         id="stop3780-05"
         offset="0.5"
         style="stop-color:#909090;stop-opacity:1" />
      <stop
         style="stop-color:#ffffff;stop-opacity:1"
         offset="1"
         id="stop3776-0" />
    </linearGradient>
    <linearGradient
       id="linearGradient4347-9">
      <stop
         style="stop-color:#ffffff;stop-opacity:0.75294119;"
         offset="0"
         id="stop4349-9" />
      <stop
         id="stop4355-8"
         offset="0.5"
         style="stop-color:#ffffff;stop-opacity:0.25098041;" />
      <stop
         style="stop-color:#ffffff;stop-opacity:0;"
         offset="0.5"
         id="stop4444" />
      <stop
         style="stop-color:#ffffff;stop-opacity:0;"
         offset="1"
         id="stop4351-0" />
    </linearGradient>
    <linearGradient
       id="linearGradient4347">
      <stop
         style="stop-color:#20ff00;stop-opacity:1;"
         offset="0"
         id="stop4349" />
      <stop
         id="stop4355"
         offset="0.5"
         style="stop-color:#ffc000;stop-opacity:1;" />
      <stop
         style="stop-color:#ff2000;stop-opacity:1;"
         offset="1"
         id="stop4351" />
    </linearGradient>
    <linearGradient
       id="linearGradient3772">
      <stop
         style="stop-color:#202020;stop-opacity:1;"
         offset="0"
         id="stop3774" />
      <stop
         id="stop3780"
         offset="0.5"
         style="stop-color:#000000;stop-opacity:1;" />
      <stop
         style="stop-color:#e0e0e0;stop-opacity:1;"
         offset="1"
         id="stop3776" />
    </linearGradient>
    <linearGradient
       inkscape:collect="always"
       xlink:href="#linearGradient4347-9"
       id="linearGradient1039"
       gradientUnits="userSpaceOnUse"
       x1="-0.0024280699"
       y1="0.19843748"
       x2="-0.0024280699"
       y2="2.9765627" />
    <linearGradient
       inkscape:collect="always"
       xlink:href="#linearGradient3772-1"
       id="linearGradient1041"
       gradientUnits="userSpaceOnUse"
       x1="1.0583333"
       y1="-0.26458332"
       x2="1.0583333"
       y2="3.4395833" />
  </defs>
  <sodipodi:namedview
     id="base"
     pagecolor="#808080"
     bordercolor="#666666"
     borderopacity="1.0"
     inkscape:pageopacity="0"
     inkscape:pageshadow="2"
     inkscape:zoom="41.440994"
     inkscape:cx="10.699847"
     inkscape:cy="313.41985"
     inkscape:document-units="mm"
     inkscape:current-layer="g5304"
     showgrid="true"
     units="px"
     inkscape:snap-bbox="true"
     inkscape:snap-nodes="true"
     inkscape:bbox-paths="true"
     inkscape:bbox-nodes="true"
     inkscape:window-width="1920"
     inkscape:window-height="1012"
     inkscape:window-x="0"
     inkscape:window-y="0"
     inkscape:window-maximized="1"
     inkscape:snap-page="true"
     inkscape:snap-smooth-nodes="true"
     inkscape:snap-bbox-edge-midpoints="true"
     inkscape:snap-others="true"
     fit-margin-top="0"
     fit-margin-left="0"
     fit-margin-right="0"
     fit-margin-bottom="0"
     inkscape:object-paths="true"
     inkscape:snap-intersection-paths="true">
    <inkscape:grid
       type="xygrid"
       id="grid4485"
       empspacing="4"
       originx="-3.3999996e-09"
       originy="69.850025" />
  </sodipodi:namedview>
  <metadata
     id="metadata5">
    <rdf:RDF>
      <cc:Work
         rdf:about="">
        <dc:format>image/svg+xml</dc:format>
        <dc:type
           rdf:resource="http://purl.org/dc/dcmitype/StillImage" />
        <dc:title />
      </cc:Work>
    </rdf:RDF>
  </metadata>
  <g
     inkscape:label="bg"
     inkscape:groupmode="layer"
     id="layer1"
     transform="translate(0,-281.65415)"
     style="display:inline"
     sodipodi:insensitive="true">
    <rect
       style="color:#000000;display:inline;overflow:visible;visibility:visible;opacity:1;vector-effect:none;fill:#000000;fill-opacity:1;fill-rule:nonzero;stroke:none;stroke-width:5.18025017;stroke-linecap:square;stroke-linejoin:miter;stroke-miterlimit:4;stroke-dasharray:none;stroke-dashoffset:0;stroke-opacity:1;marker:none;paint-order:stroke markers fill;enable-background:accumulate"
       id="rect5354"
       width="6.6145835"
       height="85.195877"
       x="0"
       y="281.65411" />
  </g>
  <g
     inkscape:groupmode="layer"
     id="layer2"
     inkscape:label="value"
     style="display:inline"
     transform="translate(0,12.170817)"
     sodipodi:insensitive="true">
    <rect
       style="display:inline;fill:#20ff00;fill-opacity:1;stroke:none;stroke-width:0.01559072;stroke-miterlimit:4;stroke-dasharray:none;stroke-opacity:1"
       id="rect8828"
       width="3.7041657"
       height="6.0854168"
       x="69.320831"
       y="0.26458329"
       transform="matrix(0,1.0000003,0.99999999,0,0,-2.110699e-5)"
       inkscape:tile-cx="46.000012"
       inkscape:tile-cy="36.000062"
       inkscape:tile-w="91.999992"
       inkscape:tile-h="72.000122"
       inkscape:tile-x0="1.6029803e-05"
       inkscape:tile-y0="5.4687496e-07" />
    <rect
       inkscape:tile-y0="5.4687496e-07"
       inkscape:tile-x0="1.6029803e-05"
       transform="matrix(0,1.0000003,0.99999999,0,0,-2.110699e-5)"
       y="0.26458329"
       x="65.616661"
       height="5.8208332"
       width="3.7041657"
       id="use4734"
       style="display:inline;fill:#34ff00;fill-opacity:1;stroke:none;stroke-width:0.01524803;stroke-miterlimit:4;stroke-dasharray:none;stroke-opacity:1" />
    <rect
       inkscape:tile-y0="5.4687496e-07"
       inkscape:tile-x0="1.6029803e-05"
       transform="matrix(0,1.0000003,0.99999999,0,0,-2.110699e-5)"
       y="0.26458329"
       x="61.912491"
       height="5.5562501"
       width="3.7041657"
       id="use4736"
       style="display:inline;fill:#48ff00;fill-opacity:1;stroke:none;stroke-width:0.01489745;stroke-miterlimit:4;stroke-dasharray:none;stroke-opacity:1" />
    <rect
       inkscape:tile-y0="5.4687496e-07"
       inkscape:tile-x0="1.6029803e-05"
       transform="matrix(0,1.0000003,0.99999999,0,0,-2.110699e-5)"
       y="0.26458329"
       x="58.208336"
       height="5.2916665"
       width="3.7041657"
       id="use4738"
       style="display:inline;fill:#5cff00;fill-opacity:1;stroke:none;stroke-width:0.01453843;stroke-miterlimit:4;stroke-dasharray:none;stroke-opacity:1" />
    <rect
       inkscape:tile-y0="5.4687496e-07"
       inkscape:tile-x0="1.6029803e-05"
       transform="matrix(0,1.0000003,0.99999999,0,0,-2.110699e-5)"
       y="0.26458329"
       x="54.504166"
       height="5.0270834"
       width="3.7041657"
       id="use4740"
       style="display:inline;fill:#71ff00;fill-opacity:1;stroke:none;stroke-width:0.0141703;stroke-miterlimit:4;stroke-dasharray:none;stroke-opacity:1" />
    <rect
       inkscape:tile-y0="5.4687496e-07"
       inkscape:tile-x0="1.6029803e-05"
       transform="matrix(0,1.0000003,0.99999999,0,0,-2.110699e-5)"
       y="0.26458329"
       x="50.799988"
       height="4.7624993"
       width="3.7041657"
       id="use4742"
       style="display:inline;fill:#85ff00;fill-opacity:1;stroke:none;stroke-width:0.01379236;stroke-miterlimit:4;stroke-dasharray:none;stroke-opacity:1" />
    <rect
       inkscape:tile-y0="5.4687496e-07"
       inkscape:tile-x0="1.6029803e-05"
       transform="matrix(0,1.0000003,0.99999999,0,0,-2.110699e-5)"
       y="0.26458329"
       x="47.095837"
       height="4.4979167"
       width="3.7041657"
       id="use4744"
       style="display:inline;fill:#99ff00;fill-opacity:1;stroke:none;stroke-width:0.01340376;stroke-miterlimit:4;stroke-dasharray:none;stroke-opacity:1" />
    <rect
       inkscape:tile-y0="5.4687496e-07"
       inkscape:tile-x0="1.6029803e-05"
       transform="matrix(0,1.0000003,0.99999999,0,0,-2.110699e-5)"
       y="0.26458329"
       x="43.391674"
       height="4.2333336"
       width="3.7041657"
       id="use4746"
       style="display:inline;fill:#adff00;fill-opacity:1;stroke:none;stroke-width:0.01300355;stroke-miterlimit:4;stroke-dasharray:none;stroke-opacity:1" />
    <rect
       inkscape:tile-y0="5.4687496e-07"
       inkscape:tile-x0="1.6029803e-05"
       transform="matrix(0,1.0000003,0.99999999,0,0,-2.110699e-5)"
       y="0.26458329"
       x="39.687511"
       height="3.9687498"
       width="3.7041657"
       id="use4748"
       style="display:inline;fill:#c2ff00;fill-opacity:1;stroke:none;stroke-width:0.01259064;stroke-miterlimit:4;stroke-dasharray:none;stroke-opacity:1" />
    <rect
       inkscape:tile-y0="5.4687496e-07"
       inkscape:tile-x0="1.6029803e-05"
       transform="matrix(0,1.0000003,0.99999999,0,0,-2.110699e-5)"
       y="0.26458329"
       x="35.983334"
       height="3.7041667"
       width="3.7041657"
       id="use4750"
       style="display:inline;fill:#d6ff00;fill-opacity:1;stroke:none;stroke-width:0.01216371;stroke-miterlimit:4;stroke-dasharray:none;stroke-opacity:1" />
    <rect
       inkscape:tile-y0="5.4687496e-07"
       inkscape:tile-x0="1.6029803e-05"
       transform="matrix(0,1.0000003,0.99999999,0,0,-2.110699e-5)"
       y="0.26458329"
       x="32.279175"
       height="3.4395831"
       width="3.7041657"
       id="use4753"
       style="display:inline;fill:#eaff00;fill-opacity:1;stroke:none;stroke-width:0.01172126;stroke-miterlimit:4;stroke-dasharray:none;stroke-opacity:1" />
    <rect
       inkscape:tile-y0="5.4687496e-07"
       inkscape:tile-x0="1.6029803e-05"
       transform="matrix(0,1.0000003,0.99999999,0,0,-2.110699e-5)"
       y="0.26458329"
       x="28.575005"
       height="3.1749995"
       width="3.7041657"
       id="use4755"
       style="display:inline;fill:#ffff00;fill-opacity:1;stroke:none;stroke-width:0.0112614;stroke-miterlimit:4;stroke-dasharray:none;stroke-opacity:1" />
    <rect
       inkscape:tile-y0="5.4687496e-07"
       inkscape:tile-x0="1.6029803e-05"
       transform="matrix(0,1.0000003,0.99999999,0,0,-2.110699e-5)"
       y="0.26458329"
       x="24.870836"
       height="2.9104166"
       width="3.7041657"
       id="use4757"
       style="display:inline;fill:#ffea00;fill-opacity:1;stroke:none;stroke-width:0.01078198;stroke-miterlimit:4;stroke-dasharray:none;stroke-opacity:1" />
    <rect
       inkscape:tile-y0="5.4687496e-07"
       inkscape:tile-x0="1.6029803e-05"
       transform="matrix(0,1.0000003,0.99999999,0,0,-2.110699e-5)"
       y="0.26458329"
       x="21.166668"
       height="2.6458333"
       width="3.7041657"
       id="use4759"
       style="display:inline;fill:#ffd600;fill-opacity:1;stroke:none;stroke-width:0.0102802;stroke-miterlimit:4;stroke-dasharray:none;stroke-opacity:1" />
    <rect
       inkscape:tile-y0="5.4687496e-07"
       inkscape:tile-x0="1.6029803e-05"
       transform="matrix(0,1.0000003,0.99999999,0,0,-2.110699e-5)"
       y="0.26458329"
       x="17.462509"
       height="2.3812497"
       width="3.7041657"
       id="use4761"
       style="display:inline;fill:#ffc200;fill-opacity:1;stroke:none;stroke-width:0.00975267;stroke-miterlimit:4;stroke-dasharray:none;stroke-opacity:1" />
    <rect
       inkscape:tile-y0="5.4687496e-07"
       inkscape:tile-x0="1.6029803e-05"
       transform="matrix(0,1.0000003,0.99999999,0,0,-2.110699e-5)"
       y="0.26458329"
       x="13.758351"
       height="2.1166668"
       width="3.7041657"
       id="use4763"
       style="display:inline;fill:#ffad00;fill-opacity:1;stroke:none;stroke-width:0.0091949;stroke-miterlimit:4;stroke-dasharray:none;stroke-opacity:1" />
    <rect
       inkscape:tile-y0="5.4687496e-07"
       inkscape:tile-x0="1.6029803e-05"
       transform="matrix(0,1.0000003,0.99999999,0,0,-2.110699e-5)"
       y="0.26458329"
       x="10.054168"
       height="1.8520833"
       width="3.7041657"
       id="use4765"
       style="display:inline;fill:#ff9900;fill-opacity:1;stroke:none;stroke-width:0.00860105;stroke-miterlimit:4;stroke-dasharray:none;stroke-opacity:1" />
    <rect
       inkscape:tile-y0="5.4687496e-07"
       inkscape:tile-x0="1.6029803e-05"
       transform="matrix(0,1.0000003,0.99999999,0,0,-2.110699e-5)"
       y="0.26458329"
       x="6.3500047"
       height="1.5874997"
       width="3.7041657"
       id="use4767"
       style="display:inline;fill:#ff8500;fill-opacity:1;stroke:none;stroke-width:0.00796303;stroke-miterlimit:4;stroke-dasharray:none;stroke-opacity:1" />
    <rect
       inkscape:tile-y0="5.4687496e-07"
       inkscape:tile-x0="1.6029803e-05"
       transform="matrix(0,1.0000003,0.99999999,0,0,-2.110699e-5)"
       y="0.26458329"
       x="2.6458519"
       height="1.3229166"
       width="3.7041657"
       id="use4769"
       style="display:inline;fill:#ff7100;fill-opacity:1;stroke:none;stroke-width:0.00726922;stroke-miterlimit:4;stroke-dasharray:none;stroke-opacity:1" />
    <rect
       inkscape:tile-y0="5.4687496e-07"
       inkscape:tile-x0="1.6029803e-05"
       transform="matrix(0,1.0000003,0.99999999,0,0,-2.110699e-5)"
       y="0.26458329"
       x="-1.0583155"
       height="1.0583334"
       width="3.7041657"
       id="use4771"
       style="display:inline;fill:#ff5c00;fill-opacity:1;stroke:none;stroke-width:0.00650178;stroke-miterlimit:4;stroke-dasharray:none;stroke-opacity:1" />
    <rect
       inkscape:tile-y0="5.4687496e-07"
       inkscape:tile-x0="1.6029803e-05"
       transform="matrix(0,1.0000003,0.99999999,0,0,-2.110699e-5)"
       y="0.26458329"
       x="-4.7624779"
       height="0.79374987"
       width="3.7041657"
       id="use4773"
       style="display:inline;fill:#ff4800;fill-opacity:1;stroke:none;stroke-width:0.00563071;stroke-miterlimit:4;stroke-dasharray:none;stroke-opacity:1" />
    <rect
       inkscape:tile-y0="5.4687496e-07"
       inkscape:tile-x0="1.6029803e-05"
       transform="matrix(0,1.0000003,0.99999999,0,0,-2.110699e-5)"
       y="0.26458329"
       x="-8.4666424"
       height="0.5291667"
       width="3.7041657"
       id="use4775"
       style="display:inline;fill:#ff3400;fill-opacity:1;stroke:none;stroke-width:0.00459746;stroke-miterlimit:4;stroke-dasharray:none;stroke-opacity:1" />
    <rect
       inkscape:tile-y0="5.4687496e-07"
       inkscape:tile-x0="1.6029803e-05"
       transform="matrix(0,1.0000003,0.99999999,0,0,-2.110699e-5)"
       y="0.26458329"
       x="-12.170817"
       height="0.26458335"
       width="3.7041657"
       id="use4777"
       style="display:inline;fill:#ff2000;fill-opacity:1;stroke:none;stroke-width:0.00325089;stroke-miterlimit:4;stroke-dasharray:none;stroke-opacity:1" />
  </g>
  <g
     inkscape:groupmode="layer"
     id="layer3"
     inkscape:label="mask"
     style="display:inline"
     transform="translate(0,12.170817)">
    <g
       style="display:inline;stroke-width:0.7656436"
       id="g5304"
       transform="matrix(1.2794044,0,0,1.142857,0.00310643,-12.133044)"
       inkscape:tile-cx="3.3089097"
       inkscape:tile-cy="9.5627979"
       inkscape:tile-w="6.6176624"
       inkscape:tile-h="3.1749991"
       inkscape:tile-x0="7.8472287e-05"
       inkscape:tile-y0="7.9752984">
      <path
         sodipodi:nodetypes="ccccczcccccczzzz"
         inkscape:connector-curvature="0"
         id="rect4520"
         d="M -0.00242807,-0.03307296 V 3.2080733 H 5.1676208 V -0.03307296 Z M 0.41121634,0.19843748 H 4.1336111 L 4.5476628,0.89296882 H 4.9613073 V 2.2820315 H 4.5476628 l -0.4140517,0.6945313 -3.72239476,-10e-8 c -0.20682233,0 -0.20682233,0 -0.20682233,-0.2315104 V 0.42994794 c 0,-0.23151046 -10e-9,-0.23151046 0.20682233,-0.23151046 z"
         style="color:#000000;display:inline;overflow:visible;visibility:visible;opacity:1;vector-effect:none;fill:#000000;fill-opacity:1;fill-rule:nonzero;stroke:none;stroke-width:0.81030613;stroke-linecap:square;stroke-linejoin:miter;stroke-miterlimit:4;stroke-dasharray:none;stroke-dashoffset:0;stroke-opacity:1;marker:none;paint-order:stroke markers fill;enable-background:accumulate" />
      <path
         sodipodi:nodetypes="ccccccccc"
         inkscape:connector-curvature="0"
         id="path4494-3-6"
         d="M 0.20437389,0.19843748 H 4.1336111 L 4.547215,0.89296882 H 4.9608189 V 2.2820315 H 4.547215 L 4.1336111,2.9765628 H 0.20437389 Z"
         style="fill:url(#linearGradient1039);fill-opacity:1;fill-rule:evenodd;stroke:none;stroke-width:0.20257653px;stroke-linecap:butt;stroke-linejoin:miter;stroke-opacity:1" />
      <path
         inkscape:connector-curvature="0"
         id="path4494-3"
         d="m 0.41163439,-0.03216143 c -0.20726054,-9.1153e-4 -0.4140625,0.23059892 -0.4140625,0.46210936 l 4e-8,2.31510437 c 0,0.2315105 0.20680196,0.4630209 0.4140625,0.4628903 C 0.61889497,3.207812 4.340413,3.2080733 4.340413,3.2080733 L 4.7540169,2.5135419 H 5.1676208 V 0.66145835 l -0.4136039,2e-8 -0.4136039,-0.69453133 c 0,0 -3.72151807,0.001823 -3.92877861,9.1153e-4 z m 0.10294239,0.23062079 c 0.23372643,0 3.61903432,-2.188e-5 3.61903432,-2.188e-5 l 0.4136039,0.69453134 0.4136039,-2e-8 V 2.2820315 H 4.547215 L 4.1336111,2.9765628 H 0.51457682 c -0.20680195,0 -0.31020293,-0.1157334 -0.31020293,-0.3472438 0,0 4e-8,-1.85208382 4e-8,-2.08359427 0,-0.23151044 0.0764764,-0.34726537 0.31020285,-0.34726537 z"
         style="color:#000000;font-style:normal;font-variant:normal;font-weight:normal;font-stretch:normal;font-size:medium;line-height:normal;font-family:sans-serif;font-variant-ligatures:normal;font-variant-position:normal;font-variant-caps:normal;font-variant-numeric:normal;font-variant-alternates:normal;font-feature-settings:normal;text-indent:0;text-align:start;text-decoration:none;text-decoration-line:none;text-decoration-style:solid;text-decoration-color:#000000;letter-spacing:normal;word-spacing:normal;text-transform:none;writing-mode:lr-tb;direction:ltr;text-orientation:mixed;dominant-baseline:auto;baseline-shift:baseline;text-anchor:start;white-space:normal;shape-padding:0;clip-rule:nonzero;display:inline;overflow:visible;visibility:visible;opacity:1;isolation:auto;mix-blend-mode:normal;color-interpolation:sRGB;color-interpolation-filters:linearRGB;solid-color:#000000;solid-opacity:1;vector-effect:none;fill:url(#linearGradient1041);fill-opacity:1;fill-rule:evenodd;stroke:none;stroke-width:0.21445814px;stroke-linecap:butt;stroke-linejoin:miter;stroke-miterlimit:4;stroke-dasharray:none;stroke-dashoffset:0;stroke-opacity:1;color-rendering:auto;image-rendering:auto;shape-rendering:auto;text-rendering:auto;enable-background:accumulate"
         sodipodi:nodetypes="zzzzcccccczzcccccczzzz" />
    </g>
    <use
       x="0"
       y="0"
       inkscape:tiled-clone-of="#g5304"
       xlink:href="#g5304"
       transform="translate(0,3.7041663)"
       id="use4668"
       width="100%"
       height="100%"
       style="stroke-width:0.7656436" />
    <use
       x="0"
       y="0"
       inkscape:tiled-clone-of="#g5304"
       xlink:href="#g5304"
       transform="translate(1.0684399e-7,7.4083333)"
       id="use4670"
       width="100%"
       height="100%"
       style="stroke-width:0.7656436" />
    <use
       x="0"
       y="0"
       inkscape:tiled-clone-of="#g5304"
       xlink:href="#g5304"
       transform="translate(7.2544973e-8,11.1125)"
       id="use4672"
       width="100%"
       height="100%"
       style="stroke-width:0.7656436" />
    <use
       x="0"
       y="0"
       inkscape:tiled-clone-of="#g5304"
       xlink:href="#g5304"
       transform="translate(7.2544973e-8,14.816666)"
       id="use4674"
       width="100%"
       height="100%"
       style="stroke-width:0.7656436" />
    <use
       x="0"
       y="0"
       inkscape:tiled-clone-of="#g5304"
       xlink:href="#g5304"
       transform="translate(0,18.520833)"
       id="use4676"
       width="100%"
       height="100%"
       style="stroke-width:0.7656436" />
    <use
       x="0"
       y="0"
       inkscape:tiled-clone-of="#g5304"
       xlink:href="#g5304"
       transform="translate(7.2544732e-8,22.225)"
       id="use4678"
       width="100%"
       height="100%"
       style="stroke-width:0.7656436" />
    <use
       x="0"
       y="0"
       inkscape:tiled-clone-of="#g5304"
       xlink:href="#g5304"
       transform="translate(7.2544973e-8,25.929166)"
       id="use4680"
       width="100%"
       height="100%"
       style="stroke-width:0.7656436" />
    <use
       x="0"
       y="0"
       inkscape:tiled-clone-of="#g5304"
       xlink:href="#g5304"
       transform="translate(0,29.633333)"
       id="use4682"
       width="100%"
       height="100%"
       style="stroke-width:0.7656436" />
    <use
       x="0"
       y="0"
       inkscape:tiled-clone-of="#g5304"
       xlink:href="#g5304"
       transform="translate(0,33.3375)"
       id="use4684"
       width="100%"
       height="100%"
       style="stroke-width:0.7656436" />
    <use
       x="0"
       y="0"
       inkscape:tiled-clone-of="#g5304"
       xlink:href="#g5304"
       transform="translate(7.2544853e-8,37.041666)"
       id="use4686"
       width="100%"
       height="100%"
       style="stroke-width:0.7656436" />
    <use
       x="0"
       y="0"
       inkscape:tiled-clone-of="#g5304"
       xlink:href="#g5304"
       transform="translate(7.2544973e-8,40.745833)"
       id="use4688"
       width="100%"
       height="100%"
       style="stroke-width:0.7656436" />
    <use
       x="0"
       y="0"
       inkscape:tiled-clone-of="#g5304"
       xlink:href="#g5304"
       transform="translate(0,44.45)"
       id="use4690"
       width="100%"
       height="100%"
       style="stroke-width:0.7656436" />
    <use
       x="0"
       y="0"
       inkscape:tiled-clone-of="#g5304"
       xlink:href="#g5304"
       transform="translate(7.2544973e-8,48.154166)"
       id="use4692"
       width="100%"
       height="100%"
       style="stroke-width:0.7656436" />
    <use
       x="0"
       y="0"
       inkscape:tiled-clone-of="#g5304"
       xlink:href="#g5304"
       transform="translate(7.2544973e-8,51.858333)"
       id="use4694"
       width="100%"
       height="100%"
       style="stroke-width:0.7656436" />
    <use
       x="0"
       y="0"
       inkscape:tiled-clone-of="#g5304"
       xlink:href="#g5304"
       transform="translate(7.2544913e-8,55.5625)"
       id="use4696"
       width="100%"
       height="100%"
       style="stroke-width:0.7656436" />
    <use
       x="0"
       y="0"
       inkscape:tiled-clone-of="#g5304"
       xlink:href="#g5304"
       transform="translate(7.2544913e-8,59.266666)"
       id="use4698"
       width="100%"
       height="100%"
       style="stroke-width:0.7656436" />
    <use
       x="0"
       y="0"
       inkscape:tiled-clone-of="#g5304"
       xlink:href="#g5304"
       transform="translate(1.0684393e-7,62.970833)"
       id="use4700"
       width="100%"
       height="100%"
       style="stroke-width:0.7656436" />
    <use
       x="0"
       y="0"
       inkscape:tiled-clone-of="#g5304"
       xlink:href="#g5304"
       transform="translate(-6.2482681e-4,66.675)"
       id="use4702"
       width="100%"
       height="100%"
       style="stroke-width:0.7656436" />
    <use
       x="0"
       y="0"
       inkscape:tiled-clone-of="#g5304"
       xlink:href="#g5304"
       transform="translate(1.0684399e-7,70.379166)"
       id="use4704"
       width="100%"
       height="100%"
       style="stroke-width:0.7656436" />
    <use
       x="0"
       y="0"
       inkscape:tiled-clone-of="#g5304"
       xlink:href="#g5304"
       transform="translate(-6.2482681e-4,74.083333)"
       id="use4706"
       width="100%"
       height="100%"
       style="stroke-width:0.7656436" />
    <use
       x="0"
       y="0"
       inkscape:tiled-clone-of="#g5304"
       xlink:href="#g5304"
       transform="translate(1.0684394e-7,77.7875)"
       id="use4708"
       width="100%"
       height="100%"
       style="stroke-width:0.7656436" />
    <use
       x="0"
       y="0"
       inkscape:tiled-clone-of="#g5304"
       xlink:href="#g5304"
       transform="translate(-6.2482681e-4,81.491666)"
       id="use4710"
       width="100%"
       height="100%"
       style="stroke-width:0.7656436" />
  </g>
</svg>
