<?xml version="1.0" encoding="UTF-8" standalone="no"?>
<!-- Created with Inkscape (http://www.inkscape.org/) -->

<svg
   xmlns:dc="http://purl.org/dc/elements/1.1/"
   xmlns:cc="http://creativecommons.org/ns#"
   xmlns:rdf="http://www.w3.org/1999/02/22-rdf-syntax-ns#"
   xmlns:svg="http://www.w3.org/2000/svg"
   xmlns="http://www.w3.org/2000/svg"
   xmlns:xlink="http://www.w3.org/1999/xlink"
   xmlns:sodipodi="http://sodipodi.sourceforge.net/DTD/sodipodi-0.dtd"
   xmlns:inkscape="http://www.inkscape.org/namespaces/inkscape"
   width="16"
   height="162"
   viewBox="0 0 4.2333332 42.862497"
   version="1.1"
   id="svg4687"
   inkscape:version="0.92.4 (5da689c313, 2019-01-14)"
   sodipodi:docname="playmode.svg"
   inkscape:export-filename="/home/tcrass/devlp/rockbox/themes/e200/cyan/playmode.png"
   inkscape:export-xdpi="96"
   inkscape:export-ydpi="96">
  <defs
     id="defs4681">
    <linearGradient
       id="linearGradient5847">
      <stop
         style="stop-color:#ffffff;stop-opacity:0.94117647"
         offset="0"
         id="stop5839" />
      <stop
         id="stop5841"
         offset="0.5"
         style="stop-color:#ffffff;stop-opacity:0.3764706" />
      <stop
         style="stop-color:#ffffff;stop-opacity:0;"
         offset="0.50092071"
         id="stop5843" />
      <stop
         style="stop-color:#ffffff;stop-opacity:0;"
         offset="1"
         id="stop5845" />
    </linearGradient>
    <linearGradient
       id="linearGradient5835">
      <stop
         id="stop5827"
         offset="0"
         style="stop-color:#ffffff;stop-opacity:0.75294119;" />
      <stop
         style="stop-color:#ffffff;stop-opacity:0.3764706"
         offset="0.5"
         id="stop5829" />
      <stop
         id="stop5831"
         offset="0.50092071"
         style="stop-color:#ffffff;stop-opacity:0;" />
      <stop
         id="stop5833"
         offset="1"
         style="stop-color:#ffffff;stop-opacity:0;" />
    </linearGradient>
    <linearGradient
       id="linearGradient5823">
      <stop
         style="stop-color:#ffffff;stop-opacity:0.75294119;"
         offset="0"
         id="stop5815" />
      <stop
         id="stop5817"
         offset="0.5"
         style="stop-color:#ffffff;stop-opacity:0.3764706" />
      <stop
         style="stop-color:#ffffff;stop-opacity:0;"
         offset="0.59575498"
         id="stop5819" />
      <stop
         style="stop-color:#ffffff;stop-opacity:0;"
         offset="1"
         id="stop5821" />
    </linearGradient>
    <linearGradient
       id="linearGradient5811">
      <stop
         id="stop5803"
         offset="0"
         style="stop-color:#ffffff;stop-opacity:0.75294119;" />
      <stop
         style="stop-color:#ffffff;stop-opacity:0.3764706"
         offset="0.5"
         id="stop5805" />
      <stop
         id="stop5807"
         offset="0.59575498"
         style="stop-color:#ffffff;stop-opacity:0;" />
      <stop
         id="stop5809"
         offset="1"
         style="stop-color:#ffffff;stop-opacity:0;" />
    </linearGradient>
    <linearGradient
       id="linearGradient5799">
      <stop
         style="stop-color:#ffffff;stop-opacity:0.75294119;"
         offset="0"
         id="stop5791" />
      <stop
         id="stop5793"
         offset="0.5"
         style="stop-color:#ffffff;stop-opacity:0.3764706" />
      <stop
         style="stop-color:#ffffff;stop-opacity:0;"
         offset="0.59575498"
         id="stop5795" />
      <stop
         style="stop-color:#ffffff;stop-opacity:0;"
         offset="1"
         id="stop5797" />
    </linearGradient>
    <linearGradient
       id="linearGradient5787">
      <stop
         id="stop5779"
         offset="0"
         style="stop-color:#ffffff;stop-opacity:0.75294119;" />
      <stop
         style="stop-color:#ffffff;stop-opacity:0.3764706"
         offset="0.5"
         id="stop5781" />
      <stop
         id="stop5783"
         offset="0.59575498"
         style="stop-color:#ffffff;stop-opacity:0;" />
      <stop
         id="stop5785"
         offset="1"
         style="stop-color:#ffffff;stop-opacity:0;" />
    </linearGradient>
    <linearGradient
       id="linearGradient5775">
      <stop
         style="stop-color:#ffffff;stop-opacity:0.75294119;"
         offset="0"
         id="stop5767" />
      <stop
         id="stop5769"
         offset="0.5"
         style="stop-color:#ffffff;stop-opacity:0.3764706" />
      <stop
         style="stop-color:#ffffff;stop-opacity:0;"
         offset="0.59575498"
         id="stop5771" />
      <stop
         style="stop-color:#ffffff;stop-opacity:0;"
         offset="1"
         id="stop5773" />
    </linearGradient>
    <linearGradient
       id="linearGradient5763">
      <stop
         id="stop5755"
         offset="0"
         style="stop-color:#ffffff;stop-opacity:0.75294119;" />
      <stop
         style="stop-color:#ffffff;stop-opacity:0.3764706"
         offset="0.5"
         id="stop5757" />
      <stop
         id="stop5759"
         offset="0.59575498"
         style="stop-color:#ffffff;stop-opacity:0;" />
      <stop
         id="stop5761"
         offset="1"
         style="stop-color:#ffffff;stop-opacity:0;" />
    </linearGradient>
    <linearGradient
       id="linearGradient5751">
      <stop
         style="stop-color:#ffffff;stop-opacity:0.75294119;"
         offset="0"
         id="stop5743" />
      <stop
         id="stop5745"
         offset="0.5"
         style="stop-color:#ffffff;stop-opacity:0.3764706" />
      <stop
         style="stop-color:#ffffff;stop-opacity:0;"
         offset="0.59575498"
         id="stop5747" />
      <stop
         style="stop-color:#ffffff;stop-opacity:0;"
         offset="1"
         id="stop5749" />
    </linearGradient>
    <linearGradient
       id="linearGradient5739">
      <stop
         id="stop5731"
         offset="0"
         style="stop-color:#ffffff;stop-opacity:0.75294119;" />
      <stop
         style="stop-color:#ffffff;stop-opacity:0.3764706"
         offset="0.5"
         id="stop5733" />
      <stop
         id="stop5735"
         offset="0.59575498"
         style="stop-color:#ffffff;stop-opacity:0;" />
      <stop
         id="stop5737"
         offset="1"
         style="stop-color:#ffffff;stop-opacity:0;" />
    </linearGradient>
    <linearGradient
       id="linearGradient5727">
      <stop
         style="stop-color:#ffffff;stop-opacity:0.75294119;"
         offset="0"
         id="stop5719" />
      <stop
         id="stop5721"
         offset="0.5"
         style="stop-color:#ffffff;stop-opacity:0.3764706" />
      <stop
         style="stop-color:#ffffff;stop-opacity:0;"
         offset="0.59575498"
         id="stop5723" />
      <stop
         style="stop-color:#ffffff;stop-opacity:0;"
         offset="1"
         id="stop5725" />
    </linearGradient>
    <linearGradient
       id="linearGradient5715">
      <stop
         id="stop5707"
         offset="0"
         style="stop-color:#ffffff;stop-opacity:0.75294119;" />
      <stop
         style="stop-color:#ffffff;stop-opacity:0.3764706"
         offset="0.5"
         id="stop5709" />
      <stop
         id="stop5711"
         offset="0.59575498"
         style="stop-color:#ffffff;stop-opacity:0;" />
      <stop
         id="stop5713"
         offset="1"
         style="stop-color:#ffffff;stop-opacity:0;" />
    </linearGradient>
    <linearGradient
       id="linearGradient5703">
      <stop
         style="stop-color:#ffffff;stop-opacity:0.75294119;"
         offset="0"
         id="stop5695" />
      <stop
         id="stop5697"
         offset="0.5"
         style="stop-color:#ffffff;stop-opacity:0.3764706" />
      <stop
         style="stop-color:#ffffff;stop-opacity:0;"
         offset="0.59575498"
         id="stop5699" />
      <stop
         style="stop-color:#ffffff;stop-opacity:0;"
         offset="1"
         id="stop5701" />
    </linearGradient>
    <linearGradient
       id="linearGradient5691">
      <stop
         id="stop5683"
         offset="0"
         style="stop-color:#ffffff;stop-opacity:0.75294119;" />
      <stop
         style="stop-color:#ffffff;stop-opacity:0.3764706"
         offset="0.5"
         id="stop5685" />
      <stop
         id="stop5687"
         offset="0.59575498"
         style="stop-color:#ffffff;stop-opacity:0;" />
      <stop
         id="stop5689"
         offset="1"
         style="stop-color:#ffffff;stop-opacity:0;" />
    </linearGradient>
    <linearGradient
       id="linearGradient5679">
      <stop
         style="stop-color:#ffffff;stop-opacity:0.75294119;"
         offset="0"
         id="stop5671" />
      <stop
         id="stop5673"
         offset="0.5"
         style="stop-color:#ffffff;stop-opacity:0.3764706" />
      <stop
         style="stop-color:#ffffff;stop-opacity:0;"
         offset="0.59575498"
         id="stop5675" />
      <stop
         style="stop-color:#ffffff;stop-opacity:0;"
         offset="1"
         id="stop5677" />
    </linearGradient>
    <linearGradient
       id="linearGradient5667">
      <stop
         id="stop5659"
         offset="0"
         style="stop-color:#ffffff;stop-opacity:0.75294119;" />
      <stop
         style="stop-color:#ffffff;stop-opacity:0.3764706"
         offset="0.5"
         id="stop5661" />
      <stop
         id="stop5663"
         offset="0.59575498"
         style="stop-color:#ffffff;stop-opacity:0;" />
      <stop
         id="stop5665"
         offset="1"
         style="stop-color:#ffffff;stop-opacity:0;" />
    </linearGradient>
    <linearGradient
       id="linearGradient5655">
      <stop
         style="stop-color:#ffffff;stop-opacity:0.75294119;"
         offset="0"
         id="stop5647" />
      <stop
         id="stop5649"
         offset="0.5"
         style="stop-color:#ffffff;stop-opacity:0.3764706" />
      <stop
         style="stop-color:#ffffff;stop-opacity:0;"
         offset="0.59575498"
         id="stop5651" />
      <stop
         style="stop-color:#ffffff;stop-opacity:0;"
         offset="1"
         id="stop5653" />
    </linearGradient>
    <linearGradient
       id="linearGradient5643">
      <stop
         id="stop5635"
         offset="0"
         style="stop-color:#ffffff;stop-opacity:0.75294119;" />
      <stop
         style="stop-color:#ffffff;stop-opacity:0.3764706"
         offset="0.5"
         id="stop5637" />
      <stop
         id="stop5639"
         offset="0.59575498"
         style="stop-color:#ffffff;stop-opacity:0;" />
      <stop
         id="stop5641"
         offset="1"
         style="stop-color:#ffffff;stop-opacity:0;" />
    </linearGradient>
    <linearGradient
       id="linearGradient5631">
      <stop
         style="stop-color:#ffffff;stop-opacity:0.75294119;"
         offset="0"
         id="stop5623" />
      <stop
         id="stop5625"
         offset="0.5"
         style="stop-color:#ffffff;stop-opacity:0.3764706" />
      <stop
         style="stop-color:#ffffff;stop-opacity:0;"
         offset="0.59575498"
         id="stop5627" />
      <stop
         style="stop-color:#ffffff;stop-opacity:0;"
         offset="1"
         id="stop5629" />
    </linearGradient>
    <linearGradient
       id="linearGradient5619">
      <stop
         id="stop5611"
         offset="0"
         style="stop-color:#ffffff;stop-opacity:0.75294119;" />
      <stop
         style="stop-color:#ffffff;stop-opacity:0.3764706"
         offset="0.5"
         id="stop5613" />
      <stop
         id="stop5615"
         offset="0.59575498"
         style="stop-color:#ffffff;stop-opacity:0;" />
      <stop
         id="stop5617"
         offset="1"
         style="stop-color:#ffffff;stop-opacity:0;" />
    </linearGradient>
    <linearGradient
       id="linearGradient5607">
      <stop
         style="stop-color:#ffffff;stop-opacity:0.75294119;"
         offset="0"
         id="stop5599" />
      <stop
         id="stop5601"
         offset="0.5"
         style="stop-color:#ffffff;stop-opacity:0.3764706" />
      <stop
         style="stop-color:#ffffff;stop-opacity:0;"
         offset="0.59575498"
         id="stop5603" />
      <stop
         style="stop-color:#ffffff;stop-opacity:0;"
         offset="1"
         id="stop5605" />
    </linearGradient>
    <linearGradient
       id="linearGradient5595">
      <stop
         id="stop5587"
         offset="0"
         style="stop-color:#ffffff;stop-opacity:0.75294119;" />
      <stop
         style="stop-color:#ffffff;stop-opacity:0.25098041;"
         offset="0.5"
         id="stop5589" />
      <stop
         id="stop5591"
         offset="0.5"
         style="stop-color:#ffffff;stop-opacity:0;" />
      <stop
         id="stop5593"
         offset="1"
         style="stop-color:#ffffff;stop-opacity:0;" />
    </linearGradient>
    <linearGradient
       id="linearGradient5583">
      <stop
         style="stop-color:#ffffff;stop-opacity:0.75294119;"
         offset="0"
         id="stop5575" />
      <stop
         id="stop5577"
         offset="0.5"
         style="stop-color:#ffffff;stop-opacity:0.25098041;" />
      <stop
         style="stop-color:#ffffff;stop-opacity:0;"
         offset="0.5"
         id="stop5579" />
      <stop
         style="stop-color:#ffffff;stop-opacity:0;"
         offset="1"
         id="stop5581" />
    </linearGradient>
    <linearGradient
       id="linearGradient5571">
      <stop
         id="stop5563"
         offset="0"
         style="stop-color:#ffffff;stop-opacity:0.75294119;" />
      <stop
         style="stop-color:#ffffff;stop-opacity:0.25098041;"
         offset="0.5"
         id="stop5565" />
      <stop
         id="stop5567"
         offset="0.5"
         style="stop-color:#ffffff;stop-opacity:0;" />
      <stop
         id="stop5569"
         offset="1"
         style="stop-color:#ffffff;stop-opacity:0;" />
    </linearGradient>
    <linearGradient
       id="linearGradient5559">
      <stop
         style="stop-color:#ffffff;stop-opacity:0.75294119;"
         offset="0"
         id="stop5551" />
      <stop
         id="stop5553"
         offset="0.5"
         style="stop-color:#ffffff;stop-opacity:0.25098041;" />
      <stop
         style="stop-color:#ffffff;stop-opacity:0;"
         offset="0.5"
         id="stop5555" />
      <stop
         style="stop-color:#ffffff;stop-opacity:0;"
         offset="1"
         id="stop5557" />
    </linearGradient>
    <linearGradient
       id="linearGradient5547">
      <stop
         id="stop5539"
         offset="0"
         style="stop-color:#ffffff;stop-opacity:0.75294119;" />
      <stop
         style="stop-color:#ffffff;stop-opacity:0.25098041;"
         offset="0.5"
         id="stop5541" />
      <stop
         id="stop5543"
         offset="0.5"
         style="stop-color:#ffffff;stop-opacity:0;" />
      <stop
         id="stop5545"
         offset="1"
         style="stop-color:#ffffff;stop-opacity:0;" />
    </linearGradient>
    <linearGradient
       id="linearGradient5535">
      <stop
         style="stop-color:#ffffff;stop-opacity:0.75294119;"
         offset="0"
         id="stop5527" />
      <stop
         id="stop5529"
         offset="0.5"
         style="stop-color:#ffffff;stop-opacity:0.25098041;" />
      <stop
         style="stop-color:#ffffff;stop-opacity:0;"
         offset="0.5"
         id="stop5531" />
      <stop
         style="stop-color:#ffffff;stop-opacity:0;"
         offset="1"
         id="stop5533" />
    </linearGradient>
    <linearGradient
       id="linearGradient5523">
      <stop
         id="stop5515"
         offset="0"
         style="stop-color:#ffffff;stop-opacity:0.75294119;" />
      <stop
         style="stop-color:#ffffff;stop-opacity:0.25098041;"
         offset="0.5"
         id="stop5517" />
      <stop
         id="stop5519"
         offset="0.5"
         style="stop-color:#ffffff;stop-opacity:0;" />
      <stop
         id="stop5521"
         offset="1"
         style="stop-color:#ffffff;stop-opacity:0;" />
    </linearGradient>
    <linearGradient
       id="linearGradient5511">
      <stop
         style="stop-color:#ffffff;stop-opacity:0.75294119;"
         offset="0"
         id="stop5503" />
      <stop
         id="stop5505"
         offset="0.5"
         style="stop-color:#ffffff;stop-opacity:0.25098041;" />
      <stop
         style="stop-color:#ffffff;stop-opacity:0;"
         offset="0.5"
         id="stop5507" />
      <stop
         style="stop-color:#ffffff;stop-opacity:0;"
         offset="1"
         id="stop5509" />
    </linearGradient>
    <linearGradient
       id="linearGradient5499">
      <stop
         id="stop5491"
         offset="0"
         style="stop-color:#ffffff;stop-opacity:0.75294119;" />
      <stop
         style="stop-color:#ffffff;stop-opacity:0.25098041;"
         offset="0.5"
         id="stop5493" />
      <stop
         id="stop5495"
         offset="0.5"
         style="stop-color:#ffffff;stop-opacity:0;" />
      <stop
         id="stop5497"
         offset="1"
         style="stop-color:#ffffff;stop-opacity:0;" />
    </linearGradient>
    <linearGradient
       id="linearGradient5487">
      <stop
         style="stop-color:#ffffff;stop-opacity:0.75294119;"
         offset="0"
         id="stop5479" />
      <stop
         id="stop5481"
         offset="0.5"
         style="stop-color:#ffffff;stop-opacity:0.25098041;" />
      <stop
         style="stop-color:#ffffff;stop-opacity:0;"
         offset="0.5"
         id="stop5483" />
      <stop
         style="stop-color:#ffffff;stop-opacity:0;"
         offset="1"
         id="stop5485" />
    </linearGradient>
    <linearGradient
       id="linearGradient5475">
      <stop
         id="stop5467"
         offset="0"
         style="stop-color:#ffffff;stop-opacity:0.75294119;" />
      <stop
         style="stop-color:#ffffff;stop-opacity:0.25098041;"
         offset="0.5"
         id="stop5469" />
      <stop
         id="stop5471"
         offset="0.5"
         style="stop-color:#ffffff;stop-opacity:0;" />
      <stop
         id="stop5473"
         offset="1"
         style="stop-color:#ffffff;stop-opacity:0;" />
    </linearGradient>
    <linearGradient
       id="linearGradient5463">
      <stop
         style="stop-color:#ffffff;stop-opacity:0.75294119;"
         offset="0"
         id="stop5455" />
      <stop
         id="stop5457"
         offset="0.5"
         style="stop-color:#ffffff;stop-opacity:0.25098041;" />
      <stop
         style="stop-color:#ffffff;stop-opacity:0;"
         offset="0.5"
         id="stop5459" />
      <stop
         style="stop-color:#ffffff;stop-opacity:0;"
         offset="1"
         id="stop5461" />
    </linearGradient>
    <linearGradient
       id="linearGradient5451">
      <stop
         id="stop5443"
         offset="0"
         style="stop-color:#ffffff;stop-opacity:0.75294119;" />
      <stop
         style="stop-color:#ffffff;stop-opacity:0.25098041;"
         offset="0.5"
         id="stop5445" />
      <stop
         id="stop5447"
         offset="0.5"
         style="stop-color:#ffffff;stop-opacity:0;" />
      <stop
         id="stop5449"
         offset="1"
         style="stop-color:#ffffff;stop-opacity:0;" />
    </linearGradient>
    <linearGradient
       id="linearGradient5439">
      <stop
         style="stop-color:#ffffff;stop-opacity:0.75294119;"
         offset="0"
         id="stop5431" />
      <stop
         id="stop5433"
         offset="0.5"
         style="stop-color:#ffffff;stop-opacity:0.25098041;" />
      <stop
         style="stop-color:#ffffff;stop-opacity:0;"
         offset="0.5"
         id="stop5435" />
      <stop
         style="stop-color:#ffffff;stop-opacity:0;"
         offset="1"
         id="stop5437" />
    </linearGradient>
    <linearGradient
       id="linearGradient5427">
      <stop
         id="stop5419"
         offset="0"
         style="stop-color:#ffffff;stop-opacity:0.75294119;" />
      <stop
         style="stop-color:#ffffff;stop-opacity:0.25098041;"
         offset="0.5"
         id="stop5421" />
      <stop
         id="stop5423"
         offset="0.5"
         style="stop-color:#ffffff;stop-opacity:0;" />
      <stop
         id="stop5425"
         offset="1"
         style="stop-color:#ffffff;stop-opacity:0;" />
    </linearGradient>
    <linearGradient
       id="linearGradient5415">
      <stop
         style="stop-color:#ffffff;stop-opacity:0.75294119;"
         offset="0"
         id="stop5407" />
      <stop
         id="stop5409"
         offset="0.5"
         style="stop-color:#ffffff;stop-opacity:0.25098041;" />
      <stop
         style="stop-color:#ffffff;stop-opacity:0;"
         offset="0.5"
         id="stop5411" />
      <stop
         style="stop-color:#ffffff;stop-opacity:0;"
         offset="1"
         id="stop5413" />
    </linearGradient>
    <linearGradient
       id="linearGradient5403">
      <stop
         id="stop5395"
         offset="0"
         style="stop-color:#ffffff;stop-opacity:0.75294119;" />
      <stop
         style="stop-color:#ffffff;stop-opacity:0.25098041;"
         offset="0.5"
         id="stop5397" />
      <stop
         id="stop5399"
         offset="0.5"
         style="stop-color:#ffffff;stop-opacity:0;" />
      <stop
         id="stop5401"
         offset="1"
         style="stop-color:#ffffff;stop-opacity:0;" />
    </linearGradient>
    <linearGradient
       id="linearGradient4347-9">
      <stop
         style="stop-color:#ffffff;stop-opacity:0.75294119;"
         offset="0"
         id="stop4349-9" />
      <stop
         id="stop4355-8"
         offset="0.5"
         style="stop-color:#ffffff;stop-opacity:0.25098041;" />
      <stop
         style="stop-color:#ffffff;stop-opacity:0;"
         offset="0.5"
         id="stop4444" />
      <stop
         style="stop-color:#ffffff;stop-opacity:0;"
         offset="1"
         id="stop4351-0" />
    </linearGradient>
    <linearGradient
       inkscape:collect="always"
       xlink:href="#linearGradient5847"
       id="linearGradient1230"
       gradientUnits="userSpaceOnUse"
       gradientTransform="matrix(-0.79999999,0,0,1.6000066,4.4449999,-169.15312)"
       x1="0.26458332"
       y1="284.56458"
       x2="0.26458332"
       y2="287.21039" />
    <linearGradient
       inkscape:collect="always"
       xlink:href="#linearGradient4347-9"
       id="linearGradient1234"
       gradientUnits="userSpaceOnUse"
       gradientTransform="matrix(0.00834974,0,0,0.47036895,-2.2931959,137.19398)"
       x1="612.15625"
       y1="295.9375"
       x2="612.15625"
       y2="305.9375" />
    <linearGradient
       inkscape:collect="always"
       xlink:href="#linearGradient4347-9"
       id="linearGradient1238"
       gradientUnits="userSpaceOnUse"
       gradientTransform="matrix(0.00834977,0,0,0.47037079,-2.2932049,156.508)"
       x1="612.15625"
       y1="295.9375"
       x2="612.15625"
       y2="305.9375" />
    <linearGradient
       gradientTransform="matrix(1.3333334,0,0,1.4999962,0,-435.70925)"
       inkscape:collect="always"
       xlink:href="#linearGradient5595"
       id="linearGradient4859"
       x1="0"
       y1="307.58331"
       x2="0"
       y2="308.64163"
       gradientUnits="userSpaceOnUse" />
    <linearGradient
       inkscape:collect="always"
       xlink:href="#linearGradient5595"
       id="linearGradient4726-7"
       gradientUnits="userSpaceOnUse"
       gradientTransform="matrix(1.6,0,0,1.5999965,-0.42333332,-435.72313)"
       x1="0.26458332"
       y1="284.56458"
       x2="0.26458332"
       y2="287.21039" />
    <linearGradient
       inkscape:collect="always"
       xlink:href="#linearGradient5595"
       id="linearGradient4865"
       gradientUnits="userSpaceOnUse"
       gradientTransform="matrix(0.01878698,0,0,0.35278011,-11.509711,176.54914)"
       x1="612.15625"
       y1="295.9375"
       x2="612.15625"
       y2="305.9375" />
    <linearGradient
       gradientTransform="matrix(1.3333331,0,0,1.3333331,0,-386.21034)"
       inkscape:collect="always"
       xlink:href="#linearGradient5595"
       id="linearGradient4826"
       x1="0"
       y1="296.99997"
       x2="0"
       y2="300.17499"
       gradientUnits="userSpaceOnUse" />
    <linearGradient
       inkscape:collect="always"
       xlink:href="#linearGradient5847"
       id="linearGradient4867"
       gradientUnits="userSpaceOnUse"
       gradientTransform="matrix(1.2,0,0,1.1999974,-0.31749997,-57.176748)"
       x1="0.26458332"
       y1="284.56458"
       x2="0.26458332"
       y2="287.21039" />
    <linearGradient
       inkscape:collect="always"
       xlink:href="#linearGradient5595"
       id="linearGradient1438"
       gradientUnits="userSpaceOnUse"
       gradientTransform="matrix(0.0250492,0,0,0.47037154,-15.346218,-153.45679)"
       x1="612.15625"
       y1="295.9375"
       x2="612.15625"
       y2="305.9375" />
    <linearGradient
       inkscape:collect="always"
       xlink:href="#linearGradient5847"
       id="linearGradient1442"
       gradientUnits="userSpaceOnUse"
       gradientTransform="matrix(1.6000008,0,0,1.5999973,-0.4233335,-464.56295)"
       x1="0.26458332"
       y1="284.56458"
       x2="0.26458332"
       y2="287.21039" />
    <linearGradient
       inkscape:collect="always"
       xlink:href="#linearGradient5847"
       id="linearGradient1446"
       gradientUnits="userSpaceOnUse"
       gradientTransform="matrix(0.79999999,0,0,1.5999805,1.905,-173.90793)"
       x1="0.26458332"
       y1="284.56458"
       x2="0.26458332"
       y2="287.21039" />
  </defs>
  <sodipodi:namedview
     id="base"
     pagecolor="#808080"
     bordercolor="#666666"
     borderopacity="1.0"
     inkscape:pageopacity="0"
     inkscape:pageshadow="2"
     inkscape:zoom="5.5520977"
     inkscape:cx="-28.111612"
     inkscape:cy="103.4837"
     inkscape:document-units="mm"
     inkscape:current-layer="layer3"
     showgrid="true"
     units="px"
     showguides="false"
     inkscape:window-width="1920"
     inkscape:window-height="1012"
     inkscape:window-x="0"
     inkscape:window-y="0"
     inkscape:window-maximized="1"
     inkscape:snap-nodes="false"
     inkscape:snap-bbox="true"
     inkscape:bbox-nodes="true"
     inkscape:bbox-paths="true"
     fit-margin-top="0"
     fit-margin-left="0"
     fit-margin-right="0"
     fit-margin-bottom="0">
    <inkscape:grid
       type="xygrid"
       id="grid5232"
       empspacing="4"
       originx="0"
       originy="12.7" />
    <sodipodi:guide
       position="-8.9958327,27.516667"
       orientation="1,0"
       id="guide5243"
       inkscape:locked="false" />
  </sodipodi:namedview>
  <metadata
     id="metadata4684">
    <rdf:RDF>
      <cc:Work
         rdf:about="">
        <dc:format>image/svg+xml</dc:format>
        <dc:type
           rdf:resource="http://purl.org/dc/dcmitype/StillImage" />
        <dc:title></dc:title>
      </cc:Work>
    </rdf:RDF>
  </metadata>
  <g
     inkscape:groupmode="layer"
     id="layer2"
     inkscape:label="bg"
     transform="translate(0,14.287496)"
     sodipodi:insensitive="true">
    <rect
       style="color:#000000;display:inline;overflow:visible;visibility:visible;opacity:1;vector-effect:none;fill:#000000;fill-opacity:1;fill-rule:nonzero;stroke:none;stroke-width:1.71420002;stroke-linecap:square;stroke-linejoin:miter;stroke-miterlimit:4;stroke-dasharray:none;stroke-dashoffset:0;stroke-opacity:1;marker:none;paint-order:stroke markers fill;enable-background:accumulate"
       id="rect5245"
       width="4.2333331"
       height="42.862495"
       x="0"
       y="-14.287496" />
  </g>
  <g
     inkscape:label="icons"
     inkscape:groupmode="layer"
     id="layer1"
     transform="translate(0,-266.83748)">
    <rect
       style="color:#000000;display:inline;overflow:visible;visibility:visible;opacity:1;vector-effect:none;fill:#ff2000;fill-opacity:1;fill-rule:nonzero;stroke:none;stroke-width:1.26960421;stroke-linecap:square;stroke-linejoin:miter;stroke-miterlimit:4;stroke-dasharray:none;stroke-dashoffset:0;stroke-opacity:1;marker:none;paint-order:stroke markers fill;enable-background:accumulate"
       id="rect5234"
       width="4.2333155"
       height="4.2333241"
       x="0"
       y="267.10205" />
    <path
       style="fill:#20ff00;fill-opacity:1;fill-rule:evenodd;stroke:none;stroke-width:0.42427671px;stroke-linecap:butt;stroke-linejoin:miter;stroke-opacity:1"
       d="m 0,271.86455 v 4.23332 l 4.2333354,-2.11665 z"
       id="path5236"
       inkscape:connector-curvature="0" />
    <rect
       style="color:#000000;display:inline;overflow:visible;visibility:visible;opacity:1;vector-effect:none;fill:#ff8000;fill-opacity:1;fill-rule:nonzero;stroke:none;stroke-width:1.41111302;stroke-linecap:square;stroke-linejoin:miter;stroke-miterlimit:4;stroke-dasharray:none;stroke-dashoffset:0;stroke-opacity:1;marker:none;paint-order:stroke markers fill;enable-background:accumulate"
       id="rect5238"
       width="1.4111055"
       height="4.2333274"
       x="-2.8423328e-13"
       y="276.62704" />
    <path
       style="fill:#ffe000;fill-opacity:1;fill-rule:evenodd;stroke:none;stroke-width:0.30000964px;stroke-linecap:butt;stroke-linejoin:miter;stroke-opacity:1"
       d="m 0,281.38956 v 4.23328 l 2.1166666,-2.11665 z"
       id="path5236-3"
       inkscape:connector-curvature="0" />
    <use
       x="0"
       y="0"
       xlink:href="#rect5238"
       id="use5281"
       transform="matrix(1.0000001,0,0,0.99999551,2.8222111,0.00124632)"
       width="100%"
       height="100%"
       style="stroke-width:0.75000298" />
    <use
       x="0"
       y="0"
       xlink:href="#path5236-3"
       id="use5283"
       transform="translate(2.1166667)"
       width="100%"
       height="100%"
       style="stroke-width:0.75000501" />
    <use
       x="0"
       y="0"
       xlink:href="#path5236-3"
       id="use5285"
       transform="matrix(-1,0,0,0.99999999,4.2333333,4.7625061)"
       width="100%"
       height="100%" />
    <use
       x="0"
       y="0"
       xlink:href="#use5283"
       id="use5287"
       transform="matrix(-1,0,0,1,4.2333333,4.762513)"
       width="100%"
       height="100%" />
    <rect
       y="276.62704"
       x="2.8222113"
       height="4.2333202"
       width="1.4111056"
       id="use5309"
       style="display:inline;fill:url(#linearGradient1234);fill-opacity:1;stroke:none;stroke-width:0.04700226" />
    <path
       inkscape:connector-curvature="0"
       id="use5338"
       d="m 2.1166666,281.38979 v 4.23327 l 2.1166666,-2.11662 z"
       style="fill:url(#linearGradient1446);fill-opacity:1;fill-rule:evenodd;stroke:none;stroke-width:0.30000946px;stroke-linecap:butt;stroke-linejoin:miter;stroke-opacity:1" />
    <path
       inkscape:connector-curvature="0"
       id="use5342"
       d="m 4.2333332,286.15206 v 4.23334 l -2.1166666,-2.11666 z"
       style="fill:url(#linearGradient1230);fill-opacity:1;fill-rule:evenodd;stroke:none;stroke-width:0.30001003px;stroke-linecap:butt;stroke-linejoin:miter;stroke-opacity:1" />
    <rect
       style="color:#000000;display:inline;overflow:visible;visibility:visible;opacity:1;vector-effect:none;fill:#ff2000;fill-opacity:1;fill-rule:nonzero;stroke:none;stroke-width:0.26332369;stroke-linecap:square;stroke-linejoin:miter;stroke-miterlimit:4;stroke-dasharray:none;stroke-dashoffset:0;stroke-opacity:1;marker:none;paint-order:stroke markers fill;enable-background:accumulate"
       id="rect4701"
       width="1.411111"
       height="4.2333336"
       x="0"
       y="295.94165" />
    <use
       x="0"
       y="0"
       xlink:href="#rect4701"
       id="use4703"
       transform="translate(2.8222221,-1.0665495e-5)"
       width="100%"
       height="100%"
       style="stroke-width:0.75000006" />
    <path
       style="fill:#21a9ff;fill-opacity:1;fill-rule:evenodd;stroke:none;stroke-width:0.42427674px;stroke-linecap:butt;stroke-linejoin:miter;stroke-opacity:1"
       d="m 0,300.70415 v 4.23332 l 4.2333332,-2.11665 z"
       id="path5236-36"
       inkscape:connector-curvature="0" />
    <circle
       style="color:#000000;display:inline;overflow:visible;visibility:visible;opacity:1;vector-effect:none;fill:#ff2000;fill-opacity:1;fill-rule:nonzero;stroke:none;stroke-width:0.26552731;stroke-linecap:square;stroke-linejoin:miter;stroke-miterlimit:4;stroke-dasharray:none;stroke-dashoffset:0;stroke-opacity:1;marker:none;paint-order:stroke markers fill;enable-background:accumulate"
       id="path4699"
       cx="2.1166663"
       cy="293.03119"
       r="2.1166663" />
    <rect
       style="color:#000000;display:inline;overflow:visible;visibility:visible;opacity:1;vector-effect:none;fill:#21a9ff;fill-opacity:1;fill-rule:nonzero;stroke:none;stroke-width:0.23817626;stroke-linecap:square;stroke-linejoin:miter;stroke-miterlimit:4;stroke-dasharray:none;stroke-dashoffset:0;stroke-opacity:1;marker:none;paint-order:stroke markers fill;enable-background:accumulate"
       id="rect4728"
       width="4.2333336"
       height="1.587495"
       x="0"
       y="306.78955" />
    <rect
       y="295.94165"
       x="2.8222222"
       height="4.2333364"
       width="1.4111111"
       id="use4803"
       style="display:inline;fill:url(#linearGradient1238);fill-opacity:1;stroke:none;stroke-width:0.04700225" />
  </g>
  <g
     inkscape:groupmode="layer"
     id="layer3"
     inkscape:label="gloss"
     transform="translate(0,14.2875)">
    <rect
       style="display:inline;fill:url(#linearGradient1438);fill-opacity:1;stroke:none;stroke-width:0.08141052"
       id="rect3782-0"
       width="4.2333155"
       height="4.2333431"
       x="0"
       y="-14.022932" />
    <use
       x="0"
       y="0"
       xlink:href="#rect3782-0"
       id="use5307"
       transform="matrix(0.33333343,0,0,0.99999467,0,9.5249406)"
       width="100%"
       height="100%"
       style="stroke-width:0.9999997" />
    <path
       style="fill:url(#linearGradient1442);fill-opacity:1;fill-rule:evenodd;stroke:none;stroke-width:0.42427677px;stroke-linecap:butt;stroke-linejoin:miter;stroke-opacity:1"
       d="m 0,-9.2604167 v 4.233322 L 4.2333354,-7.143749 Z"
       id="path5236-6"
       inkscape:connector-curvature="0" />
    <use
       x="0"
       y="0"
       xlink:href="#path5236-6"
       id="use5336"
       transform="matrix(0.49999976,0,0,0.99998596,0,9.52487)"
       width="100%"
       height="100%"
       style="stroke-width:1.00000894" />
    <use
       x="0"
       y="0"
       xlink:href="#use5338"
       id="use5344"
       transform="matrix(-1,0,0,1,4.2333333,-276.36249)"
       width="100%"
       height="100%" />
    <path
       style="fill:url(#linearGradient4726-7);fill-opacity:1;fill-rule:evenodd;stroke:none;stroke-width:0.42427677px;stroke-linecap:butt;stroke-linejoin:miter;stroke-opacity:1"
       d="m 0,19.579163 v 4.23332 L 4.2333332,21.69583 Z"
       id="path5236-6-2"
       inkscape:connector-curvature="0" />
    <use
       x="0"
       y="0"
       xlink:href="#use5307"
       id="use4801"
       transform="matrix(1.0000039,0,0,1.0000043,0,19.314576)"
       width="100%"
       height="100%"
       style="stroke-width:0.99999589" />
    <circle
       style="color:#000000;display:inline;overflow:visible;visibility:visible;opacity:1;vector-effect:none;fill:url(#linearGradient4826);fill-opacity:1;fill-rule:nonzero;stroke:none;stroke-width:0.26552731;stroke-linecap:square;stroke-linejoin:miter;stroke-miterlimit:4;stroke-dasharray:none;stroke-dashoffset:0;stroke-opacity:1;marker:none;paint-order:stroke markers fill;enable-background:accumulate"
       id="path4699-9"
       cx="2.1166663"
       cy="11.90625"
       r="2.1166663" />
    <rect
       style="color:#000000;display:inline;overflow:visible;visibility:visible;opacity:1;vector-effect:none;fill:url(#linearGradient4859);fill-opacity:1;fill-rule:nonzero;stroke:none;stroke-width:0.23817626;stroke-linecap:square;stroke-linejoin:miter;stroke-miterlimit:4;stroke-dasharray:none;stroke-dashoffset:0;stroke-opacity:1;marker:none;paint-order:stroke markers fill;enable-background:accumulate"
       id="rect4728-1"
       width="4.2333336"
       height="1.587495"
       x="0"
       y="25.664562" />
  </g>
</svg>
