<?xml version="1.0" encoding="UTF-8" standalone="no"?>
<!-- Created with Inkscape (http://www.inkscape.org/) -->

<svg
   xmlns:dc="http://purl.org/dc/elements/1.1/"
   xmlns:cc="http://creativecommons.org/ns#"
   xmlns:rdf="http://www.w3.org/1999/02/22-rdf-syntax-ns#"
   xmlns:svg="http://www.w3.org/2000/svg"
   xmlns="http://www.w3.org/2000/svg"
   xmlns:xlink="http://www.w3.org/1999/xlink"
   xmlns:sodipodi="http://sodipodi.sourceforge.net/DTD/sodipodi-0.dtd"
   xmlns:inkscape="http://www.inkscape.org/namespaces/inkscape"
   width="32"
   height="110"
   id="svg5049"
   version="1.1"
   inkscape:version="0.92.4 (5da689c313, 2019-01-14)"
   sodipodi:docname="pm-bg.svg"
   inkscape:export-filename="/home/tcrass/devlp/rockbox/themes/e200/cyan/vm.png"
   inkscape:export-xdpi="90"
   inkscape:export-ydpi="90">
  <defs
     id="defs5051">
    <linearGradient
       id="linearGradient1453">
      <stop
         id="stop1445"
         offset="0"
         style="stop-color:#ffffff;stop-opacity:0.75294119;" />
      <stop
         style="stop-color:#ffffff;stop-opacity:0.25098041;"
         offset="0.43532386"
         id="stop1447" />
      <stop
         id="stop1449"
         offset="0.42857164"
         style="stop-color:#ffffff;stop-opacity:0;" />
      <stop
         id="stop1451"
         offset="1"
         style="stop-color:#ffffff;stop-opacity:0;" />
    </linearGradient>
    <linearGradient
       id="linearGradient8830">
      <stop
         style="stop-color:#20ff00;stop-opacity:1;"
         offset="0"
         id="stop8832" />
      <stop
         id="stop8838"
         offset="0.5"
         style="stop-color:#ffc000;stop-opacity:1;" />
      <stop
         style="stop-color:#ff2000;stop-opacity:1;"
         offset="1"
         id="stop8834" />
    </linearGradient>
    <linearGradient
       id="linearGradient5569">
      <stop
         style="stop-color:#404040;stop-opacity:1;"
         offset="0"
         id="stop5571" />
      <stop
         id="stop5577"
         offset="0.5"
         style="stop-color:#000000;stop-opacity:1;" />
      <stop
         style="stop-color:#e0e0e0;stop-opacity:1;"
         offset="1"
         id="stop5573" />
    </linearGradient>
    <linearGradient
       inkscape:collect="always"
       xlink:href="#linearGradient5569-6"
       id="linearGradient5575-7"
       x1="0"
       y1="964.36218"
       x2="0"
       y2="973.36218"
       gradientUnits="userSpaceOnUse" />
    <linearGradient
       id="linearGradient5569-6">
      <stop
         style="stop-color:#404040;stop-opacity:1;"
         offset="0"
         id="stop5571-7" />
      <stop
         id="stop5577-3"
         offset="0.5"
         style="stop-color:#000000;stop-opacity:1;" />
      <stop
         style="stop-color:#e0e0e0;stop-opacity:1;"
         offset="1"
         id="stop5573-6" />
    </linearGradient>
    <linearGradient
       inkscape:collect="always"
       xlink:href="#linearGradient5569-3"
       id="linearGradient5575-6"
       x1="0"
       y1="964.36218"
       x2="0"
       y2="973.36218"
       gradientUnits="userSpaceOnUse" />
    <linearGradient
       id="linearGradient5569-3">
      <stop
         style="stop-color:#404040;stop-opacity:1;"
         offset="0"
         id="stop5571-9" />
      <stop
         id="stop5577-4"
         offset="0.5"
         style="stop-color:#000000;stop-opacity:1;" />
      <stop
         style="stop-color:#e0e0e0;stop-opacity:1;"
         offset="1"
         id="stop5573-8" />
    </linearGradient>
    <linearGradient
       id="linearGradient5569-1">
      <stop
         style="stop-color:#404040;stop-opacity:1;"
         offset="0"
         id="stop5571-0" />
      <stop
         id="stop5577-5"
         offset="0.5"
         style="stop-color:#000000;stop-opacity:1;" />
      <stop
         style="stop-color:#e0e0e0;stop-opacity:1;"
         offset="1"
         id="stop5573-1" />
    </linearGradient>
    <linearGradient
       inkscape:collect="always"
       xlink:href="#linearGradient5569-1"
       id="linearGradient8025"
       gradientUnits="userSpaceOnUse"
       gradientTransform="matrix(1.0079177,0,0,0.6394415,-0.09501249,389.83146)"
       x1="0"
       y1="964.36218"
       x2="0"
       y2="973.36218" />
    <linearGradient
       id="linearGradient8027">
      <stop
         style="stop-color:#404040;stop-opacity:1;"
         offset="0"
         id="stop8029" />
      <stop
         id="stop8031"
         offset="0.5"
         style="stop-color:#000000;stop-opacity:1;" />
      <stop
         style="stop-color:#e0e0e0;stop-opacity:1;"
         offset="1"
         id="stop8033" />
    </linearGradient>
    <linearGradient
       inkscape:collect="always"
       xlink:href="#linearGradient5569-1"
       id="linearGradient8035"
       gradientUnits="userSpaceOnUse"
       gradientTransform="matrix(1.0079177,0,0,0.6394415,-0.09501249,389.83146)"
       x1="0"
       y1="964.36218"
       x2="0"
       y2="973.36218" />
    <linearGradient
       id="linearGradient8037">
      <stop
         style="stop-color:#404040;stop-opacity:1;"
         offset="0"
         id="stop8039" />
      <stop
         id="stop8041"
         offset="0.5"
         style="stop-color:#000000;stop-opacity:1;" />
      <stop
         style="stop-color:#e0e0e0;stop-opacity:1;"
         offset="1"
         id="stop8043" />
    </linearGradient>
    <linearGradient
       inkscape:collect="always"
       xlink:href="#linearGradient5569-1"
       id="linearGradient8045"
       gradientUnits="userSpaceOnUse"
       gradientTransform="matrix(1.0079177,0,0,0.6394415,-0.09501249,389.83146)"
       x1="0"
       y1="964.36218"
       x2="0"
       y2="973.36218" />
    <linearGradient
       id="linearGradient8047">
      <stop
         style="stop-color:#404040;stop-opacity:1;"
         offset="0"
         id="stop8049" />
      <stop
         id="stop8051"
         offset="0.5"
         style="stop-color:#000000;stop-opacity:1;" />
      <stop
         style="stop-color:#e0e0e0;stop-opacity:1;"
         offset="1"
         id="stop8053" />
    </linearGradient>
    <linearGradient
       inkscape:collect="always"
       xlink:href="#linearGradient5569-1"
       id="linearGradient8055"
       gradientUnits="userSpaceOnUse"
       gradientTransform="matrix(1.0079177,0,0,0.6394415,-0.09501249,389.83146)"
       x1="0"
       y1="964.36218"
       x2="0"
       y2="973.36218" />
    <linearGradient
       id="linearGradient8057">
      <stop
         style="stop-color:#404040;stop-opacity:1;"
         offset="0"
         id="stop8059" />
      <stop
         id="stop8061"
         offset="0.5"
         style="stop-color:#000000;stop-opacity:1;" />
      <stop
         style="stop-color:#e0e0e0;stop-opacity:1;"
         offset="1"
         id="stop8063" />
    </linearGradient>
    <linearGradient
       y2="973.36218"
       x2="0"
       y1="964.36218"
       x1="0"
       gradientTransform="matrix(1.0079177,0,0,0.6394415,-0.09501249,389.83146)"
       gradientUnits="userSpaceOnUse"
       id="linearGradient8070"
       xlink:href="#linearGradient5569-1"
       inkscape:collect="always" />
    <linearGradient
       inkscape:collect="always"
       xlink:href="#linearGradient5569-1"
       id="linearGradient8147"
       gradientUnits="userSpaceOnUse"
       gradientTransform="matrix(1.0079177,0,0,0.6394415,-0.09501249,3327.9181)"
       x1="0"
       y1="964.36218"
       x2="0"
       y2="973.36218" />
    <linearGradient
       inkscape:collect="always"
       xlink:href="#linearGradient5569-4"
       id="linearGradient8006-6"
       gradientUnits="userSpaceOnUse"
       gradientTransform="matrix(1.0079177,0,0,0.6394415,-0.09501249,389.83146)"
       x1="0"
       y1="964.36218"
       x2="0"
       y2="973.36218" />
    <linearGradient
       id="linearGradient5569-4">
      <stop
         style="stop-color:#404040;stop-opacity:1;"
         offset="0"
         id="stop5571-6" />
      <stop
         id="stop5577-2"
         offset="0.5"
         style="stop-color:#000000;stop-opacity:1;" />
      <stop
         style="stop-color:#e0e0e0;stop-opacity:1;"
         offset="1"
         id="stop5573-5" />
    </linearGradient>
    <linearGradient
       inkscape:collect="always"
       xlink:href="#linearGradient5569-4"
       id="linearGradient8164"
       gradientUnits="userSpaceOnUse"
       gradientTransform="matrix(1.0079177,0,0,0.6394415,-0.09501249,389.83146)"
       x1="0"
       y1="964.36218"
       x2="0"
       y2="973.36218" />
    <linearGradient
       id="linearGradient8166">
      <stop
         style="stop-color:#404040;stop-opacity:1;"
         offset="0"
         id="stop8168" />
      <stop
         id="stop8170"
         offset="0.5"
         style="stop-color:#000000;stop-opacity:1;" />
      <stop
         style="stop-color:#e0e0e0;stop-opacity:1;"
         offset="1"
         id="stop8172" />
    </linearGradient>
    <linearGradient
       inkscape:collect="always"
       xlink:href="#linearGradient5569-4"
       id="linearGradient8174"
       gradientUnits="userSpaceOnUse"
       gradientTransform="matrix(1.0079177,0,0,0.6394415,-0.09501249,389.83146)"
       x1="0"
       y1="964.36218"
       x2="0"
       y2="973.36218" />
    <linearGradient
       id="linearGradient8176">
      <stop
         style="stop-color:#404040;stop-opacity:1;"
         offset="0"
         id="stop8178" />
      <stop
         id="stop8180"
         offset="0.5"
         style="stop-color:#000000;stop-opacity:1;" />
      <stop
         style="stop-color:#e0e0e0;stop-opacity:1;"
         offset="1"
         id="stop8182" />
    </linearGradient>
    <linearGradient
       y2="973.36218"
       x2="0"
       y1="964.36218"
       x1="0"
       gradientTransform="matrix(1.0079177,0,0,0.6394415,-0.09501249,389.83146)"
       gradientUnits="userSpaceOnUse"
       id="linearGradient8187"
       xlink:href="#linearGradient5569-4"
       inkscape:collect="always" />
    <linearGradient
       inkscape:collect="always"
       xlink:href="#linearGradient5569-4"
       id="linearGradient8240"
       gradientUnits="userSpaceOnUse"
       gradientTransform="matrix(1.0079177,0,0,0.6394415,-0.09501249,2348.5558)"
       x1="0"
       y1="964.36218"
       x2="0"
       y2="973.36218" />
    <linearGradient
       inkscape:collect="always"
       xlink:href="#linearGradient5569-47"
       id="linearGradient8006-8"
       gradientUnits="userSpaceOnUse"
       gradientTransform="matrix(1.0079177,0,0,0.6394415,-0.09501249,389.83146)"
       x1="0"
       y1="964.36218"
       x2="0"
       y2="973.36218" />
    <linearGradient
       id="linearGradient5569-47">
      <stop
         style="stop-color:#404040;stop-opacity:1;"
         offset="0"
         id="stop5571-2" />
      <stop
         id="stop5577-40"
         offset="0.5"
         style="stop-color:#000000;stop-opacity:1;" />
      <stop
         style="stop-color:#e0e0e0;stop-opacity:1;"
         offset="1"
         id="stop5573-62" />
    </linearGradient>
    <linearGradient
       inkscape:collect="always"
       xlink:href="#linearGradient5569-0"
       id="linearGradient8006-9"
       gradientUnits="userSpaceOnUse"
       gradientTransform="matrix(1.0079177,0,0,0.6394415,-0.09501249,389.83146)"
       x1="0"
       y1="964.36218"
       x2="0"
       y2="973.36218" />
    <linearGradient
       id="linearGradient5569-0">
      <stop
         style="stop-color:#404040;stop-opacity:1;"
         offset="0"
         id="stop5571-8" />
      <stop
         id="stop5577-1"
         offset="0.5"
         style="stop-color:#000000;stop-opacity:1;" />
      <stop
         style="stop-color:#e0e0e0;stop-opacity:1;"
         offset="1"
         id="stop5573-3" />
    </linearGradient>
    <linearGradient
       inkscape:collect="always"
       xlink:href="#linearGradient5569-34"
       id="linearGradient8006-0"
       gradientUnits="userSpaceOnUse"
       gradientTransform="matrix(1.0079177,0,0,0.6394415,-0.09501249,389.83146)"
       x1="0"
       y1="964.36218"
       x2="0"
       y2="973.36218" />
    <linearGradient
       id="linearGradient5569-34">
      <stop
         style="stop-color:#404040;stop-opacity:1;"
         offset="0"
         id="stop5571-03" />
      <stop
         id="stop5577-9"
         offset="0.5"
         style="stop-color:#000000;stop-opacity:1;" />
      <stop
         style="stop-color:#e0e0e0;stop-opacity:1;"
         offset="1"
         id="stop5573-19" />
    </linearGradient>
    <linearGradient
       inkscape:collect="always"
       xlink:href="#linearGradient5569-38"
       id="linearGradient8006-93"
       gradientUnits="userSpaceOnUse"
       gradientTransform="matrix(1.0079177,0,0,0.6394415,-0.09501249,389.83146)"
       x1="0"
       y1="964.36218"
       x2="0"
       y2="973.36218" />
    <linearGradient
       id="linearGradient5569-38">
      <stop
         style="stop-color:#404040;stop-opacity:1;"
         offset="0"
         id="stop5571-05" />
      <stop
         id="stop5577-6"
         offset="0.5"
         style="stop-color:#000000;stop-opacity:1;" />
      <stop
         style="stop-color:#e0e0e0;stop-opacity:1;"
         offset="1"
         id="stop5573-64" />
    </linearGradient>
    <linearGradient
       inkscape:collect="always"
       xlink:href="#linearGradient5569-62"
       id="linearGradient8006-04"
       gradientUnits="userSpaceOnUse"
       gradientTransform="matrix(1.0079177,0,0,0.6394415,-0.09501249,389.83146)"
       x1="0"
       y1="964.36218"
       x2="0"
       y2="973.36218" />
    <linearGradient
       id="linearGradient5569-62">
      <stop
         style="stop-color:#404040;stop-opacity:1;"
         offset="0"
         id="stop5571-67" />
      <stop
         id="stop5577-56"
         offset="0.5"
         style="stop-color:#000000;stop-opacity:1;" />
      <stop
         style="stop-color:#e0e0e0;stop-opacity:1;"
         offset="1"
         id="stop5573-9" />
    </linearGradient>
    <linearGradient
       inkscape:collect="always"
       xlink:href="#linearGradient5569-2"
       id="linearGradient8006-7"
       gradientUnits="userSpaceOnUse"
       gradientTransform="matrix(1.0079177,0,0,0.6394415,-0.09501249,389.83146)"
       x1="0"
       y1="964.36218"
       x2="0"
       y2="973.36218" />
    <linearGradient
       id="linearGradient5569-2">
      <stop
         style="stop-color:#404040;stop-opacity:1;"
         offset="0"
         id="stop5571-82" />
      <stop
         id="stop5577-99"
         offset="0.5"
         style="stop-color:#000000;stop-opacity:1;" />
      <stop
         style="stop-color:#e0e0e0;stop-opacity:1;"
         offset="1"
         id="stop5573-60" />
    </linearGradient>
    <linearGradient
       inkscape:collect="always"
       xlink:href="#linearGradient5569-13"
       id="linearGradient8006-76"
       gradientUnits="userSpaceOnUse"
       gradientTransform="matrix(1.0079177,0,0,0.6394415,-0.09501249,389.83146)"
       x1="0"
       y1="964.36218"
       x2="0"
       y2="973.36218" />
    <linearGradient
       id="linearGradient5569-13">
      <stop
         style="stop-color:#404040;stop-opacity:1;"
         offset="0"
         id="stop5571-21" />
      <stop
         id="stop5577-59"
         offset="0.5"
         style="stop-color:#000000;stop-opacity:1;" />
      <stop
         style="stop-color:#e0e0e0;stop-opacity:1;"
         offset="1"
         id="stop5573-91" />
    </linearGradient>
    <linearGradient
       inkscape:collect="always"
       xlink:href="#linearGradient5569-07"
       id="linearGradient8006-91"
       gradientUnits="userSpaceOnUse"
       gradientTransform="matrix(1.0079177,0,0,0.6394415,-0.09501249,389.83146)"
       x1="0"
       y1="964.36218"
       x2="0"
       y2="973.36218" />
    <linearGradient
       id="linearGradient5569-07">
      <stop
         style="stop-color:#404040;stop-opacity:1;"
         offset="0"
         id="stop5571-5" />
      <stop
         id="stop5577-8"
         offset="0.5"
         style="stop-color:#000000;stop-opacity:1;" />
      <stop
         style="stop-color:#e0e0e0;stop-opacity:1;"
         offset="1"
         id="stop5573-7" />
    </linearGradient>
    <linearGradient
       inkscape:collect="always"
       xlink:href="#linearGradient5569-42"
       id="linearGradient8006-80"
       gradientUnits="userSpaceOnUse"
       gradientTransform="matrix(1.0079177,0,0,0.6394415,-0.09501249,389.83146)"
       x1="0"
       y1="964.36218"
       x2="0"
       y2="973.36218" />
    <linearGradient
       id="linearGradient5569-42">
      <stop
         style="stop-color:#404040;stop-opacity:1;"
         offset="0"
         id="stop5571-96" />
      <stop
         id="stop5577-10"
         offset="0.5"
         style="stop-color:#000000;stop-opacity:1;" />
      <stop
         style="stop-color:#e0e0e0;stop-opacity:1;"
         offset="1"
         id="stop5573-4" />
    </linearGradient>
    <linearGradient
       y2="973.36218"
       x2="0"
       y1="964.36218"
       x1="0"
       gradientTransform="matrix(1.0079177,0,0,0.6394415,-0.09501249,389.83146)"
       gradientUnits="userSpaceOnUse"
       id="linearGradient8549"
       xlink:href="#linearGradient5569-42"
       inkscape:collect="always" />
    <linearGradient
       gradientTransform="translate(3.3e-6,4e-6)"
       y2="305.9375"
       x2="612.15625"
       y1="295.9375"
       x1="612.15625"
       gradientUnits="userSpaceOnUse"
       id="linearGradient4378-2"
       xlink:href="#linearGradient4347-9"
       inkscape:collect="always" />
    <linearGradient
       id="linearGradient4347-9">
      <stop
         style="stop-color:#ffffff;stop-opacity:0.75294119;"
         offset="0"
         id="stop4349-9" />
      <stop
         id="stop4355-8"
         offset="0.5"
         style="stop-color:#ffffff;stop-opacity:0.25098041;" />
      <stop
         style="stop-color:#ffffff;stop-opacity:0;"
         offset="0.5"
         id="stop4444" />
      <stop
         style="stop-color:#ffffff;stop-opacity:0;"
         offset="1"
         id="stop4351-0" />
    </linearGradient>
    <linearGradient
       y2="305.9375"
       x2="612.15625"
       y1="295.9375"
       x1="612.15625"
       gradientTransform="matrix(0.14201183,0,0,0.66666667,-87.002539,844.73978)"
       gradientUnits="userSpaceOnUse"
       id="linearGradient8587-2"
       xlink:href="#linearGradient4347-9-2"
       inkscape:collect="always" />
    <linearGradient
       id="linearGradient4347-9-2">
      <stop
         style="stop-color:#ffffff;stop-opacity:0.75294119;"
         offset="0"
         id="stop4349-9-0" />
      <stop
         id="stop4355-8-5"
         offset="0.5"
         style="stop-color:#ffffff;stop-opacity:0.25098041;" />
      <stop
         style="stop-color:#ffffff;stop-opacity:0;"
         offset="0.5"
         id="stop4444-5" />
      <stop
         style="stop-color:#ffffff;stop-opacity:0;"
         offset="1"
         id="stop4351-0-2" />
    </linearGradient>
    <linearGradient
       y2="305.9375"
       x2="612.15625"
       y1="295.9375"
       x1="612.15625"
       gradientTransform="matrix(0.14201183,0,0,0.66666667,-87.002539,844.73978)"
       gradientUnits="userSpaceOnUse"
       id="linearGradient8587-0"
       xlink:href="#linearGradient4347-9-28"
       inkscape:collect="always" />
    <linearGradient
       id="linearGradient4347-9-28">
      <stop
         style="stop-color:#ffffff;stop-opacity:0.75294119;"
         offset="0"
         id="stop4349-9-3" />
      <stop
         id="stop4355-8-8"
         offset="0.5"
         style="stop-color:#ffffff;stop-opacity:0.25098041;" />
      <stop
         style="stop-color:#ffffff;stop-opacity:0;"
         offset="0.5"
         id="stop4444-0" />
      <stop
         style="stop-color:#ffffff;stop-opacity:0;"
         offset="1"
         id="stop4351-0-4" />
    </linearGradient>
    <linearGradient
       y2="305.9375"
       x2="612.15625"
       y1="295.9375"
       x1="612.15625"
       gradientTransform="matrix(0.14201183,0,0,0.66666667,-87.002539,844.73978)"
       gradientUnits="userSpaceOnUse"
       id="linearGradient8587-9"
       xlink:href="#linearGradient4347-9-6"
       inkscape:collect="always" />
    <linearGradient
       id="linearGradient4347-9-6">
      <stop
         style="stop-color:#ffffff;stop-opacity:0.75294119;"
         offset="0"
         id="stop4349-9-2" />
      <stop
         id="stop4355-8-54"
         offset="0.5"
         style="stop-color:#ffffff;stop-opacity:0.25098041;" />
      <stop
         style="stop-color:#ffffff;stop-opacity:0;"
         offset="0.5"
         id="stop4444-4" />
      <stop
         style="stop-color:#ffffff;stop-opacity:0;"
         offset="1"
         id="stop4351-0-9" />
    </linearGradient>
    <linearGradient
       y2="305.9375"
       x2="612.15625"
       y1="295.9375"
       x1="612.15625"
       gradientTransform="matrix(0.14201183,0,0,0.66666667,-87.002539,844.73978)"
       gradientUnits="userSpaceOnUse"
       id="linearGradient8587-6"
       xlink:href="#linearGradient4347-9-0"
       inkscape:collect="always" />
    <linearGradient
       id="linearGradient4347-9-0">
      <stop
         style="stop-color:#ffffff;stop-opacity:0.75294119;"
         offset="0"
         id="stop4349-9-5" />
      <stop
         id="stop4355-8-0"
         offset="0.5"
         style="stop-color:#ffffff;stop-opacity:0.25098041;" />
      <stop
         style="stop-color:#ffffff;stop-opacity:0;"
         offset="0.5"
         id="stop4444-2" />
      <stop
         style="stop-color:#ffffff;stop-opacity:0;"
         offset="1"
         id="stop4351-0-94" />
    </linearGradient>
    <linearGradient
       y2="305.9375"
       x2="612.15625"
       y1="295.9375"
       x1="612.15625"
       gradientTransform="matrix(0.14201183,0,0,0.66666667,-87.002539,844.73978)"
       gradientUnits="userSpaceOnUse"
       id="linearGradient8587-1"
       xlink:href="#linearGradient4347-9-7"
       inkscape:collect="always" />
    <linearGradient
       id="linearGradient4347-9-7">
      <stop
         style="stop-color:#ffffff;stop-opacity:0.75294119;"
         offset="0"
         id="stop4349-9-4" />
      <stop
         id="stop4355-8-3"
         offset="0.5"
         style="stop-color:#ffffff;stop-opacity:0.25098041;" />
      <stop
         style="stop-color:#ffffff;stop-opacity:0;"
         offset="0.5"
         id="stop4444-1" />
      <stop
         style="stop-color:#ffffff;stop-opacity:0;"
         offset="1"
         id="stop4351-0-46" />
    </linearGradient>
    <linearGradient
       y2="305.9375"
       x2="612.15625"
       y1="295.9375"
       x1="612.15625"
       gradientTransform="matrix(0.14201183,0,0,0.66666667,-87.002539,844.73978)"
       gradientUnits="userSpaceOnUse"
       id="linearGradient8587-26"
       xlink:href="#linearGradient4347-9-4"
       inkscape:collect="always" />
    <linearGradient
       id="linearGradient4347-9-4">
      <stop
         style="stop-color:#ffffff;stop-opacity:0.75294119;"
         offset="0"
         id="stop4349-9-1" />
      <stop
         id="stop4355-8-2"
         offset="0.5"
         style="stop-color:#ffffff;stop-opacity:0.25098041;" />
      <stop
         style="stop-color:#ffffff;stop-opacity:0;"
         offset="0.5"
         id="stop4444-8" />
      <stop
         style="stop-color:#ffffff;stop-opacity:0;"
         offset="1"
         id="stop4351-0-8" />
    </linearGradient>
    <linearGradient
       y2="305.9375"
       x2="612.15625"
       y1="295.9375"
       x1="612.15625"
       gradientTransform="matrix(0.14201183,0,0,0.66666667,-87.002539,844.73978)"
       gradientUnits="userSpaceOnUse"
       id="linearGradient8587-8"
       xlink:href="#linearGradient4347-9-8"
       inkscape:collect="always" />
    <linearGradient
       id="linearGradient4347-9-8">
      <stop
         style="stop-color:#ffffff;stop-opacity:0.75294119;"
         offset="0"
         id="stop4349-9-6" />
      <stop
         id="stop4355-8-83"
         offset="0.5"
         style="stop-color:#ffffff;stop-opacity:0.25098041;" />
      <stop
         style="stop-color:#ffffff;stop-opacity:0;"
         offset="0.5"
         id="stop4444-83" />
      <stop
         style="stop-color:#ffffff;stop-opacity:0;"
         offset="1"
         id="stop4351-0-3" />
    </linearGradient>
    <linearGradient
       inkscape:collect="always"
       xlink:href="#linearGradient8830"
       id="linearGradient8836"
       x1="28"
       y1="1045.3622"
       x2="28"
       y2="982.36218"
       gradientUnits="userSpaceOnUse"
       gradientTransform="matrix(1.1428572,0,0,1.5942029,-3.4059797e-8,-2609.6642)" />
    <linearGradient
       inkscape:collect="always"
       xlink:href="#linearGradient5569-1"
       id="linearGradient3185"
       gradientUnits="userSpaceOnUse"
       gradientTransform="matrix(1.0079177,0,0,0.6394415,-0.09501243,2357.556)"
       x1="0"
       y1="964.36218"
       x2="0"
       y2="973.36218" />
    <linearGradient
       inkscape:collect="always"
       xlink:href="#linearGradient5569-1"
       id="linearGradient3191"
       gradientUnits="userSpaceOnUse"
       gradientTransform="matrix(1.0079177,0,0,0.6394415,-0.09501243,2339.556)"
       x1="0"
       y1="964.36218"
       x2="0"
       y2="973.36218" />
    <linearGradient
       inkscape:collect="always"
       xlink:href="#linearGradient5569-4"
       id="linearGradient3195"
       gradientUnits="userSpaceOnUse"
       gradientTransform="matrix(1.0079177,0,0,0.6394415,-0.09501243,1360.1937)"
       x1="0"
       y1="964.36218"
       x2="0"
       y2="973.36218" />
    <linearGradient
       inkscape:collect="always"
       xlink:href="#linearGradient5569-1"
       id="linearGradient3199"
       gradientUnits="userSpaceOnUse"
       gradientTransform="matrix(1.0079177,0,0,0.6394415,-0.0950124,1351.1939)"
       x1="0"
       y1="964.36218"
       x2="0"
       y2="973.36218" />
    <linearGradient
       inkscape:collect="always"
       xlink:href="#linearGradient1453"
       id="linearGradient1519"
       gradientUnits="userSpaceOnUse"
       gradientTransform="matrix(0.17751479,0,0,0.7777778,-80.753176,-196.55947)"
       x1="612.64288"
       y1="296.43359"
       x2="612.64288"
       y2="305.43359" />
    <linearGradient
       inkscape:collect="always"
       xlink:href="#linearGradient5569"
       id="linearGradient1521"
       gradientUnits="userSpaceOnUse"
       gradientTransform="matrix(1.3584979,0,0,1.0231061,26.698027,-953.74882)"
       x1="0"
       y1="964.36218"
       x2="0"
       y2="973.36218" />
  </defs>
  <sodipodi:namedview
     id="base"
     pagecolor="#000000"
     bordercolor="#666666"
     borderopacity="1.0"
     inkscape:pageopacity="1"
     inkscape:pageshadow="2"
     inkscape:zoom="5.6568542"
     inkscape:cx="-1.3475578"
     inkscape:cy="54.162309"
     inkscape:document-units="px"
     inkscape:current-layer="layer2"
     showgrid="true"
     inkscape:snap-bbox="true"
     inkscape:snap-nodes="true"
     fit-margin-top="0"
     fit-margin-left="0"
     fit-margin-right="0"
     fit-margin-bottom="0"
     inkscape:window-width="1920"
     inkscape:window-height="1026"
     inkscape:window-x="0"
     inkscape:window-y="0"
     inkscape:window-maximized="1"
     inkscape:bbox-paths="true"
     inkscape:bbox-nodes="true"
     inkscape:snap-page="true"
     inkscape:snap-intersection-paths="true"
     inkscape:snap-smooth-nodes="true"
     inkscape:snap-grids="true">
    <inkscape:grid
       type="xygrid"
       id="grid5057"
       empspacing="4"
       visible="true"
       enabled="true"
       snapvisiblegridlinesonly="true" />
  </sodipodi:namedview>
  <metadata
     id="metadata5054">
    <rdf:RDF>
      <cc:Work
         rdf:about="">
        <dc:format>image/svg+xml</dc:format>
        <dc:type
           rdf:resource="http://purl.org/dc/dcmitype/StillImage" />
        <dc:title></dc:title>
      </cc:Work>
    </rdf:RDF>
  </metadata>
  <g
     inkscape:label="bg"
     inkscape:groupmode="layer"
     id="layer1"
     transform="translate(2.9802322e-8,-938.36218)"
     style="display:none">
    <rect
       style="fill:url(#linearGradient8836);fill-opacity:1;stroke:none;stroke-width:0.99999994"
       id="rect8828"
       width="32"
       height="110"
       x="-3.4059795e-08"
       y="-1048.3622"
       transform="scale(1,-1)" />
  </g>
  <g
     inkscape:groupmode="layer"
     id="layer2"
     inkscape:label="fg">
    <g
       id="g1486"
       transform="translate(-27,67)">
      <rect
         ry="1.4"
         rx="1.4"
         y="34"
         x="28.000002"
         height="7"
         width="30"
         id="rect3782-0-0"
         style="display:inline;fill:url(#linearGradient1519);fill-opacity:1;stroke:none;stroke-width:1" />
      <path
         sodipodi:nodetypes="ccccczzzzszzzz"
         inkscape:connector-curvature="0"
         style="fill:#000000;fill-opacity:1;stroke:none"
         d="M 27,32 V 43 H 59 V 32 Z m 3,1 h 26 c 1,0 2,1 2,2 v 5 c 0,1 -1,2 -2,2 H 30 c -1,0 -2,-1 -2,-2 v -5 c 0,-1 1,-2 2,-2 z"
         id="rect8008" />
      <rect
         ry="2"
         rx="1.8235297"
         y="33.500004"
         x="27.5"
         height="7.9999976"
         width="31"
         id="use5665"
         style="fill:none;stroke:url(#linearGradient1521);stroke-width:0.99999994;stroke-linecap:round;stroke-miterlimit:4;stroke-dasharray:none;stroke-opacity:1" />
    </g>
    <use
       x="0"
       y="0"
       xlink:href="#g1486"
       id="use1488"
       transform="translate(0,-11)"
       width="100%"
       height="100%" />
    <use
       x="0"
       y="0"
       xlink:href="#use1488"
       id="use1503"
       transform="translate(0,-11)"
       width="100%"
       height="100%" />
    <use
       x="0"
       y="0"
       xlink:href="#use1503"
       id="use1505"
       transform="translate(0,-11)"
       width="100%"
       height="100%" />
    <use
       x="0"
       y="0"
       xlink:href="#use1505"
       id="use1507"
       transform="translate(0,-11)"
       width="100%"
       height="100%" />
    <use
       x="0"
       y="0"
       xlink:href="#use1507"
       id="use1509"
       transform="translate(0,-11)"
       width="100%"
       height="100%" />
    <use
       x="0"
       y="0"
       xlink:href="#use1509"
       id="use1511"
       transform="translate(0,-11)"
       width="100%"
       height="100%" />
    <use
       x="0"
       y="0"
       xlink:href="#use1511"
       id="use1513"
       transform="translate(0,-11)"
       width="100%"
       height="100%" />
    <use
       x="0"
       y="0"
       xlink:href="#use1513"
       id="use1515"
       transform="translate(0,-11)"
       width="100%"
       height="100%" />
    <use
       x="0"
       y="0"
       xlink:href="#use1515"
       id="use1517"
       transform="translate(0,-11)"
       width="100%"
       height="100%" />
  </g>
</svg>
